{
  "movingReason": "I love moving",
  "householdMembers": "Joe Starr, mother-in-law, fiance, daughter",
  "minBudget": "1000",
  "maxBudget": "3500",
  "squareFootage": "2000",
  "amenities": "free laundry, coffee",
  "recentlyViewedCredit": "never",
  "rentalReason": "I have free candy",
  "incentivesOther": "pool, be my friend",
  "self": "I am lonely and would like a friend"
}