{
  "referralUrl": "/apply/maivillage2",
  "firstName": "Michael",
  "lastName": "Savage",
  "email": "fakeemail518@gmail.com",
  "phoneNumber": "5151515515",
  "password": "password",
  "streetAddress": "508 Leegard Ave",
  "city": "Silver Sp",
  "state": "NV",
  "zipcode": "89429",
  "ssn": "666635461",
  "status": "Employed",
  "yearlyIncome": "50000",
  "sqpaymentName": "Michael Savage",
  "sqpaymentNonce": "4111111111111111",
  "sqpaymentDate": "11/22",
  "sqpaymentCVV": "111",
  "sqpaymentZipcode": "11111",
  "bankUser": "user_good",
  "bankPassword": "pass_good"
}